992
-8 976
-24 960
24 -16 -64 -56 -56 -40 688
-64 88 -32 -48 16 -64 632
-64 64 -16 -40 -48 720
-40 -16 920
-64 -24 -24 856
-16 120 -16 -64 744
-40 -24 -32 32 -40 -40 736
-8 -24 944
24 -32 -56 856
-64 -40 872
-32 952
-64 920
-40 -40 896
-8 56 -8 -16 872
992
-32 -56 -16 -56 800
48 -40 888
-48 -40 888
64 -56 -64 -16 32 -8 704
-8 48 -56 -40 808
64 -64 -32 -48 752
