-40 16 -32 880
-24 -32 32 -40 48 -56 712
992
328 -40 608
-72 72 -16 -40 -64 688
-40 -40 -40 -40 800
80 -96 32 -40 280 -112 304
992
64 -16 -112 88 -160 -176 328
112 -120 -16 720
-32 -32 48 -120 728
-104 -104 -40 720
-72 8 -16 -24 8 -64 -64 680
-32 952
-40 120 -64 -64 -144 520
40 -48 -112 -128 632
40 -128 808
256 -80 640
272 -64 640
-40 944
992
