-992
992
-992
-976 8
992
-8 -976
-88 -96 -104 -112 -120 -128 -136 -152
88 -96 -104 -112 -120 -128 -136 152
192 -104 -112 -120 -128 296
192 -104 240 -128 296
192 -104 680
992
-88 -96 -104 -112 -120 -112 -104 -96 -96
88 -96 -104 -112 120 -112 104 -96 -96
88 -96 -104 -112 -120 -112 104 -96 -96
88 -96 -104 -112 -104 8 -112 104 -96 -96
88 -96 -104 -112 -104 240 -96 -96
88 -96 -104 -112 -104 448
-24 -8 -32 -8 -40 -72 -16 -48 -40 -24 -40 -64 -72 -56 -72 -24 -16 -24 -64 -32 -56
-24 8 -8 -24 8 -72 -16 -24 -40 -40 -64 -72 -56 -72 -64 -48 224
